{
  "name": "icons",
  "css_prefix_text": "icon-",
  "css_use_suffix": false,
  "hinting": true,
  "units_per_em": 1000,
  "ascent": 850,
  "glyphs": [
    {
      "uid": "aec47313ed60b45181173a798d5cf25b",
      "css": "checkbox",
      "code": 59392,
      "src": "custom_icons",
      "selected": true,
      "svg": {
        "path": "M888.9 111.1V888.9H111.1V111.1H888.9M888.9 0H111.1C50 0 0 50 0 111.1V888.9C0 950 50 1000 111.1 1000H888.9C950 1000 1000 950 1000 888.9V111.1C1000 50 950 0 888.9 0L888.9 0Z",
        "width": 1000
      },
      "search": [
        "checkbox"
      ]
    },
    {
      "uid": "e1c76be7f83e2f83ed8b1e6e449c709c",
      "css": "checkbox-checked",
      "code": 59393,
      "src": "custom_icons",
      "selected": true,
      "svg": {
        "path": "M272.2 394.4L194.4 472.2 444.4 722.2 1000 166.7 922.2 88.9 444.4 566.7 272.2 394.4ZM888.9 888.9H111.1V111.1H666.7V0H111.1C50 0 0 50 0 111.1V888.9C0 950 50 1000 111.1 1000H888.9C950 1000 1000 950 1000 888.9V444.4H888.9V888.9Z",
        "width": 1000
      },
      "search": [
        "checkbox-checked"
      ]
    },
    {
      "uid": "97c0ee2bff1fb25078ce15f4fe963944",
      "css": "radio",
      "code": 59394,
      "src": "custom_icons",
      "selected": true,
      "svg": {
        "path": "M500 0C225 0 0 225 0 500S225 1000 500 1000 1000 775 1000 500 775 0 500 0ZM500 900C280 900 100 720 100 500S280 100 500 100 900 280 900 500 720 900 500 900Z",
        "width": 1000
      },
      "search": [
        "radio"
      ]
    },
    {
      "uid": "453d845f85df02fbafca597181130dd3",
      "css": "radio-checked",
      "code": 59395,
      "src": "custom_icons",
      "selected": true,
      "svg": {
        "path": "M500 250C360 250 250 360 250 500 250 640 360 750 500 750 640 750 750 640 750 500 750 360 640 250 500 250ZM500 0C225 0 0 225 0 500S225 1000 500 1000 1000 775 1000 500 775 0 500 0ZM500 900C280 900 100 720 100 500S280 100 500 100 900 280 900 500 720 900 500 900Z",
        "width": 1000
      },
      "search": [
        "radio-checked"
      ]
    },
    {
      "uid": "e82cedfa1d5f15b00c5a81c9bd731ea2",
      "css": "info-circled",
      "code": 59396,
      "src": "fontawesome"
    },
    {
      "uid": "b035c28eba2b35c6ffe92aee8b0df507",
      "css": "attention-circled",
      "code": 59397,
      "src": "fontawesome"
    },
    {
      "uid": "c76b7947c957c9b78b11741173c8349b",
      "css": "attention",
      "code": 59398,
      "src": "fontawesome"
    },
    {
      "uid": "0f4cae16f34ae243a6144c18a003f2d8",
      "css": "cancel-circled",
      "code": 59399,
      "src": "fontawesome"
    },
    {
      "uid": "ccddff8e8670dcd130e3cb55fdfc2fd0",
      "css": "down-open",
      "code": 59400,
      "src": "fontawesome"
    },
    {
      "uid": "d870630ff8f81e6de3958ecaeac532f2",
      "css": "left-open",
      "code": 59401,
      "src": "fontawesome"
    },
    {
      "uid": "399ef63b1e23ab1b761dfbb5591fa4da",
      "css": "right-open",
      "code": 59402,
      "src": "fontawesome"
    },
    {
      "uid": "fe6697b391355dec12f3d86d6d490397",
      "css": "up-open",
      "code": 59403,
      "src": "fontawesome"
    },
    {
      "uid": "3151198e23e5609e025d903512f13579",
      "css": "xart",
      "code": 59404,
      "src": "custom_icons",
      "selected": true,
      "svg": {
        "path": "M0.3 135.8C0.7 267.1 0.7 271 3 285.2 7.5 312.3 13.7 333.1 23.7 353.6 52.5 412.9 109 454.7 186.6 473.8 219 481.7 242.6 484.4 281.8 484.3L307.5 484.3 294.5 480C280 475.1 274.4 472.5 257.8 462.8 248.8 457.5 243.4 453.2 234.3 444.2 195.2 405.4 176 345.5 170.8 246.1 170.2 234.4 169.6 219.5 169.6 212.8L169.6 200.9 192.9 200.9C244.4 200.9 285.3 210.4 326.7 232.1 367.2 253.3 401.1 281.4 446.9 331.5 489.4 377.9 500.4 389.6 508.5 396.8L516.9 404.4 516.4 312.4C516 211.7 516.2 215.3 508.8 185.3 493 121 456.8 68.9 406.3 37.6 380 21.5 344.8 9.6 305.8 3.7 294.3 2 278.2 1.8 146.4 1.5L-0.1 1 0.3 135.8ZM777.9 2.3C659.2 12.7 580.9 82.9 557.6 199.8 552.7 224.8 552.3 233 552.7 321.2L553 404.1 562.8 395C568.2 390 586.5 370.9 603.5 352.5 620.3 334 641 312.3 649.3 304 710.6 243 766.6 212.9 837.6 202.9 848.5 201.5 897.7 200.9 899.1 202.3 900.1 203.3 898 257.1 896.2 276.8 889 355.8 869.4 408.8 834.9 443.2 817 461.2 800.1 471.4 774.7 480L761.7 484.4 787.9 484.4C826 484.4 851.9 481.6 881.7 474.1 949.6 457.3 1000.9 424 1032.8 376.2 1045.5 357.1 1057.3 328.9 1062.6 304.5 1068.6 276.8 1068.4 281.9 1068.9 136.4L1069.3 1.1 928.9 1.2C851.7 1.3 783.7 1.8 777.9 2.3ZM229.2 519.5C168.3 527.5 113.6 549.4 75.1 581.8 40 611.4 16.3 651.7 6.3 699.3 0.2 728.2 0 733.4 0 872.2L0 1000.1 147.1 999.7C279.9 999.3 295.3 999.1 306.9 997.4 366.4 988.4 410.7 967.5 446.3 931.8 480.5 897.5 502.6 852.2 513.6 793.9 516.1 780.9 516.1 778.9 516.4 678.6 516.6 622.4 516.6 569.4 516.5 560.8L516.2 545.2 506.7 564.2C496.4 584.7 493.8 591 475.2 640 468.5 657.8 460.3 678.9 456.9 686.8 425.6 760.5 387.8 797.5 330.6 810.7L323.7 812.3 318.6 806.6C295.3 780.1 268.2 723 256.7 676.1 248.3 642.4 245.6 607.8 249.3 582.6 252.9 558.8 261.8 537.5 274.6 523.1L279.2 517.9 259.8 518C249.2 518.1 235.4 518.8 229.2 519.5ZM795.2 523.7C811.4 541.6 820 567.4 821.1 601.1 822.1 631.3 818.1 659.6 808 693.1 795.5 734.5 770 785.2 750.7 806.6L745.5 812.3 738.5 810.7C709.3 804.1 683 789.2 662.1 767.3 637.8 742.1 621.8 712.7 599.3 653.5 579.9 602.2 571 580.4 562.2 562.5L553 544.2 552.7 653.5C552.5 726.6 552.8 767 553.6 775.1 556.7 806.9 567 843.1 580.8 871.3 594.1 898.1 607 916.2 626.8 935.3 658.3 965.5 695.6 984.4 743 993.9 774 1000 774.7 1000 927.8 1000L1069.3 1000 1068.9 864.6C1068.5 741.9 1068.3 728.2 1066.5 717.6 1057.8 665.5 1041.1 629.6 1010 596.7 966.4 550.1 883.7 517.9 808.5 517.9L790 517.9 795.2 523.7Z",
        "width": 1070
      },
      "search": [
        "xart"
      ]
    },
    {
      "uid": "589cdfed0b58ae3df15817251d3dd784",
      "css": "phone",
      "code": 59405,
      "src": "custom_icons",
      "selected": true,
      "svg": {
        "path": "M203.8 664.7C302.4 782.6 421.1 875.5 556.6 941.2 608.2 965.6 677.2 994.6 754.1 999.6 758.9 999.8 763.4 1000 768.2 1000 819.8 1000 861.2 982.2 895 945.5 895.2 945.3 895.6 944.9 895.9 944.5 907.9 930 921.5 916.9 935.8 903 945.6 893.7 955.5 884 965.1 874 1009.2 828 1009.2 769.6 964.6 725L840.1 600.5C819 578.5 793.7 566.9 767.2 566.9 740.7 566.9 715.2 578.5 693.4 600.3L619.2 674.5C612.4 670.5 605.3 667 598.7 663.7 590.4 659.6 582.8 655.6 575.9 651.3 508.4 608.4 447 552.4 388.4 480.5 358.8 443 338.9 411.5 325 379.4 344.5 361.8 362.7 343.3 380.3 325.3 386.5 318.9 393 312.5 399.4 306.1 421.8 283.7 433.8 257.8 433.8 231.5S422 179.2 399.4 156.9L337.6 95.1C330.4 87.9 323.5 80.8 316.5 73.6 302.8 59.5 288.5 45 274.4 31.9 253.1 11 228 0 201.5 0 175.2 0 149.9 11 127.7 32.1L50.2 109.6C22 137.8 6.1 172 2.8 211.6-1.2 261.1 8 313.7 31.6 377.3 67.8 475.8 122.5 567.1 203.8 664.7ZM53.3 215.9C55.8 188.4 66.4 165.4 86.3 145.5L163.4 68.4C175.4 56.8 188.6 50.8 201.5 50.8 214.1 50.8 227 56.8 238.8 68.8 252.7 81.6 265.7 95.1 279.8 109.4 286.9 116.7 294.1 123.9 301.4 131.4L363.1 193.1C376 206 382.6 219 382.6 231.9S376 257.8 363.1 270.6C356.7 277 350.3 283.7 343.8 290.1 324.6 309.6 306.5 328 286.7 345.6 286.2 346 286 346.2 285.6 346.7 268.4 363.9 271.1 380.2 275.3 392.7 275.5 393.3 275.7 393.7 275.9 394.3 291.8 432.7 314 469.1 348.6 512.6 410.8 589.3 476.3 648.8 548.4 694.6 557.3 700.4 566.8 704.9 575.7 709.5 584 713.6 591.7 717.6 598.5 721.9 599.3 722.3 600 722.8 600.8 723.2 607.6 726.7 614.3 728.3 620.9 728.3 637.5 728.3 648.2 717.8 651.8 714.3L729.3 636.8C741.3 624.7 754.3 618.3 767.2 618.3 782.9 618.3 795.8 628.1 803.9 636.8L928.8 761.5C953.7 786.4 953.5 813.3 928.2 839.6 919.5 848.9 910.4 857.9 900.6 867.2 886.1 881.3 871 895.8 857.3 912.1 833.5 937.8 805.1 949.9 768.4 949.9 764.9 949.9 761.2 949.6 757.6 949.4 689.7 945.1 626.5 918.6 579 896 450.1 833.6 337 745.1 243.1 632.8 165.8 539.8 113.8 453.2 79.4 360.3 58.1 303.4 50 257.6 53.3 215.9Z",
        "width": 1000
      },
      "search": [
        "phone"
      ]
    },
    {
      "uid": "559647a6f430b3aeadbecd67194451dd",
      "css": "menu",
      "code": 61641,
      "src": "fontawesome"
    },
    {
      "uid": "b013f6403e5ab0326614e68d1850fd6b",
      "css": "resize-full-alt",
      "code": 61618,
      "src": "fontawesome"
    },
    {
      "uid": "b05c5a209b56e7ea6632a31e4bd0b41d",
      "css": "resize-small",
      "code": 59406,
      "src": "iconic"
    }
  ]
}